<svg width="32" height="32" viewBox="0 0 32 32" fill="none" xmlns="http://www.w3.org/2000/svg">
<path d="M18.67 18.69C18.6 18.76 18.51 18.82 18.43 18.89C18.51 18.83 18.6 18.77 18.67 18.69Z" fill="#74164F"/>
<path d="M14.33 12.6C14.18 12.68 14.02 12.75 13.88 12.84C14.02 12.75 14.18 12.67 14.33 12.6Z" fill="#74164F"/>
<path d="M18.11 19.16C17.97 19.26 17.81 19.33 17.65 19.41C17.81 19.33 17.96 19.25 18.11 19.16Z" fill="#74164F"/>
<path d="M12.8 13.95C12.7 14.1 12.62 14.26 12.54 14.43C12.62 14.26 12.71 14.1 12.8 13.95Z" fill="#74164F"/>
<path d="M12.25 15.4C12.24 15.48 12.23 15.57 12.22 15.65C12.24 15.57 12.24 15.48 12.25 15.4Z" fill="#74164F"/>
<path d="M12.42 14.76C12.39 14.84 12.36 14.93 12.34 15.01C12.36 14.93 12.39 14.85 12.42 14.76Z" fill="#74164F"/>
<path d="M19.65 16.98C19.63 17.07 19.6 17.15 19.57 17.24C19.6 17.15 19.63 17.07 19.65 16.98Z" fill="#74164F"/>
<path d="M19.44 17.58C19.37 17.74 19.28 17.9 19.18 18.05C19.28 17.89 19.37 17.74 19.44 17.58Z" fill="#74164F"/>
<path d="M19.57 14.76C19.6 14.84 19.63 14.93 19.65 15.02C19.63 14.93 19.6 14.85 19.57 14.76Z" fill="#74164F"/>
<path d="M19.73 15.4C19.74 15.48 19.75 15.57 19.76 15.66C19.75 15.57 19.75 15.49 19.73 15.4Z" fill="#74164F"/>
<path d="M12.23 16.35C12.24 16.43 12.24 16.52 12.26 16.6C12.24 16.52 12.24 16.43 12.23 16.35Z" fill="#74164F"/>
<path d="M19.76 16.34C19.75 16.43 19.75 16.51 19.73 16.6C19.75 16.51 19.75 16.43 19.76 16.34Z" fill="#74164F"/>
<path d="M19.19 13.95C19.29 14.1 19.37 14.26 19.45 14.42C19.37 14.26 19.28 14.11 19.19 13.95Z" fill="#74164F"/>
<path d="M26.53 15.55C25.22 13.86 23.66 12.38 21.9 11.16L20.54 10.36C19.15 9.59 17.59 9.17 15.99 9.15C10.2 9.15 5.66 15.3 5.47 15.56C5.27 15.83 5.27 16.19 5.47 16.45C6.76 18.14 8.32 19.62 10.08 20.84L11.44 21.64C12.84 22.41 14.4 22.83 16 22.85C21.79 22.85 26.33 16.7 26.52 16.44C26.73 16.17 26.73 15.81 26.53 15.55ZM20.79 12.27C22.34 13.31 23.74 14.56 24.92 16C23.8 17.36 20.16 21.33 15.99 21.33C14.8 21.3 13.63 21.02 12.56 20.49L11.19 19.73C9.63 18.69 8.25 17.44 7.06 16C8.18 14.64 11.82 10.67 15.99 10.67C17.18 10.7 18.35 10.98 19.42 11.51L20.79 12.27Z" fill="#FF8400"/>
<path d="M12.54 17.58C12.61 17.74 12.7 17.9 12.8 18.06C12.71 17.9 12.62 17.74 12.54 17.58Z" fill="#74164F"/>
<path d="M12.34 16.98C12.36 17.07 12.39 17.15 12.42 17.23C12.39 17.15 12.36 17.07 12.34 16.98Z" fill="#74164F"/>
<path d="M13.31 13.31C13.39 13.23 13.48 13.17 13.56 13.11C13.48 13.17 13.39 13.23 13.31 13.31Z" fill="#74164F"/>
<path d="M12.8 13.95C12.81 13.93 12.82 13.91 12.83 13.89C12.97 13.67 13.14 13.48 13.31 13.3C13.12 13.5 12.95 13.72 12.8 13.95Z" fill="#74164F"/>
<path d="M19.57 17.24C19.53 17.35 19.49 17.47 19.44 17.58C19.49 17.47 19.53 17.35 19.57 17.24Z" fill="#74164F"/>
<path d="M12.8 18.05C12.81 18.07 12.82 18.09 12.83 18.11C12.82 18.09 12.81 18.07 12.8 18.05Z" fill="#74164F"/>
<path d="M19.73 16.6C19.71 16.73 19.68 16.86 19.65 16.98C19.68 16.86 19.71 16.73 19.73 16.6Z" fill="#74164F"/>
<path d="M19.44 14.42C19.49 14.53 19.53 14.65 19.57 14.76C19.53 14.65 19.49 14.53 19.44 14.42Z" fill="#74164F"/>
<path d="M17.46 19.5C17.53 19.47 17.58 19.43 17.65 19.4C17.59 19.44 17.53 19.48 17.46 19.5Z" fill="#74164F"/>
<path d="M19.65 15.02C19.68 15.15 19.71 15.27 19.73 15.4C19.71 15.27 19.68 15.14 19.65 15.02Z" fill="#74164F"/>
<path d="M19.76 16.34C19.77 16.23 19.79 16.11 19.79 16C19.79 15.89 19.77 15.77 19.76 15.66C19.78 15.89 19.78 16.11 19.76 16.34Z" fill="#74164F"/>
<path d="M13.88 12.84C13.77 12.92 13.67 13.01 13.56 13.1C13.67 13.01 13.77 12.92 13.88 12.84Z" fill="#74164F"/>
<path d="M12.42 17.24C12.46 17.36 12.5 17.47 12.55 17.58C12.49 17.47 12.46 17.35 12.42 17.24Z" fill="#74164F"/>
<path d="M14.52 12.5C14.45 12.53 14.39 12.57 14.33 12.6C14.4 12.57 14.46 12.52 14.52 12.5Z" fill="#74164F"/>
<path d="M12.54 14.42C12.49 14.53 12.45 14.65 12.41 14.76C12.46 14.65 12.49 14.53 12.54 14.42Z" fill="#74164F"/>
<path d="M12.34 15.02C12.31 15.15 12.28 15.27 12.26 15.4C12.27 15.27 12.3 15.15 12.34 15.02Z" fill="#74164F"/>
<path d="M18.43 18.9C18.32 18.99 18.22 19.09 18.11 19.16C18.22 19.08 18.32 18.98 18.43 18.9Z" fill="#74164F"/>
<path d="M19.19 13.95C19.18 13.93 19.17 13.91 19.16 13.89C19.17 13.91 19.17 13.93 19.19 13.95Z" fill="#74164F"/>
<path d="M12.23 16.35C12.21 16.12 12.21 15.89 12.23 15.66C12.22 15.78 12.2 15.89 12.2 16.01C12.2 16.13 12.22 16.23 12.23 16.35Z" fill="#74164F"/>
<path d="M18.67 18.69C18.87 18.5 19.03 18.28 19.18 18.04C19.17 18.06 19.16 18.08 19.15 18.1C19.01 18.32 18.85 18.52 18.67 18.69Z" fill="#74164F"/>
<path d="M12.25 16.6C12.27 16.73 12.3 16.86 12.33 16.98C12.3 16.85 12.27 16.73 12.25 16.6Z" fill="#74164F"/>
<path d="M18.11 19.16C18.22 19.08 18.33 18.99 18.43 18.9C18.51 18.83 18.6 18.77 18.67 18.7C18.85 18.52 19.01 18.33 19.15 18.11C19.16 18.09 19.17 18.07 19.18 18.05C19.28 17.9 19.36 17.74 19.44 17.58C19.49 17.47 19.53 17.35 19.57 17.24C19.6 17.16 19.63 17.07 19.65 16.98C19.68 16.85 19.71 16.73 19.73 16.6C19.74 16.52 19.75 16.43 19.76 16.34C19.78 16.11 19.78 15.88 19.76 15.66C19.75 15.57 19.75 15.49 19.73 15.4C19.71 15.27 19.68 15.14 19.65 15.02C19.63 14.93 19.6 14.85 19.57 14.76C19.53 14.65 19.49 14.53 19.44 14.42C19.37 14.26 19.28 14.1 19.18 13.95C19.17 13.93 19.16 13.91 19.15 13.89C18.47 12.87 17.31 12.2 15.99 12.2C15.47 12.2 14.97 12.31 14.52 12.5C14.45 12.53 14.39 12.57 14.33 12.6C14.18 12.68 14.02 12.75 13.88 12.84C13.77 12.92 13.67 13.01 13.56 13.1C13.48 13.17 13.39 13.23 13.31 13.3C13.13 13.48 12.97 13.67 12.83 13.89C12.82 13.91 12.81 13.93 12.8 13.95C12.7 14.1 12.62 14.26 12.54 14.43C12.49 14.54 12.45 14.66 12.41 14.77C12.38 14.85 12.35 14.94 12.33 15.02C12.3 15.15 12.27 15.27 12.25 15.4C12.24 15.48 12.23 15.57 12.22 15.65C12.2 15.88 12.2 16.11 12.22 16.34C12.23 16.42 12.23 16.51 12.25 16.59C12.27 16.72 12.3 16.85 12.33 16.97C12.35 17.06 12.38 17.14 12.41 17.22C12.45 17.33 12.49 17.45 12.54 17.56C12.62 17.72 12.7 17.88 12.8 18.04C12.81 18.06 12.82 18.08 12.83 18.1C13.51 19.12 14.67 19.79 15.99 19.79C16.51 19.79 17.01 19.68 17.46 19.49C17.53 19.46 17.58 19.42 17.65 19.39C17.81 19.33 17.96 19.25 18.11 19.16ZM13.93 16.99C13.93 16.99 13.93 16.98 13.93 16.99C13.79 16.69 13.7 16.36 13.7 16C13.7 14.73 14.73 13.7 16 13.7C16.91 13.7 17.7 14.24 18.07 15.01C18.21 15.31 18.3 15.64 18.3 15.99C18.3 17.26 17.27 18.29 16 18.29C15.08 18.3 14.3 17.76 13.93 16.99Z" fill="#FF8400"/>
</svg>
