<svg width="22" height="20" viewBox="0 0 22 20" fill="none" xmlns="http://www.w3.org/2000/svg">
<path d="M16.9067 5.16L19.9067 2.16C20.2133 1.86667 20.2133 1.38667 19.92 1.08C19.6267 0.773332 19.1467 0.773333 18.84 1.06667L18.8267 1.08L15.5467 4.36C14.16 3.58667 12.6 3.17333 11 3.14667C5.21333 3.14667 0.666665 9.29333 0.479998 9.56C0.279998 9.82667 0.279998 10.1867 0.479998 10.4533C1.77333 12.1467 3.33333 13.6267 5.09333 14.84L2.09333 17.84C1.78666 18.1333 1.78666 18.6133 2.08 18.92C2.37333 19.2267 2.85333 19.2267 3.16 18.9333L3.17333 18.92L6.45333 15.64C7.85333 16.4133 9.41333 16.8267 11.0133 16.8533C16.8 16.8533 21.3467 10.7067 21.5333 10.44C21.7333 10.1733 21.7333 9.81333 21.5333 9.54667C20.2267 7.85333 18.6667 6.37333 16.9067 5.16ZM2.06666 10C3.18666 8.64 6.82666 4.66667 11 4.66667C12.1867 4.69333 13.36 4.97333 14.4267 5.50667L13.1067 6.82667C11.36 5.66667 9 6.14667 7.84 7.89333C7 9.17333 7 10.8267 7.84 12.1067L6.2 13.7333C4.64 12.6933 3.25333 11.44 2.06666 10ZM13.28 10C13.28 11.2667 12.2533 12.28 11 12.28C10.6667 12.28 10.32 12.2 10.0267 12.0533L13.0667 9.01333C13.2 9.32 13.28 9.66667 13.28 10ZM8.72 10C8.72 8.73333 9.74666 7.72 11 7.72C11.3333 7.72 11.68 7.8 11.9733 7.94667L8.93333 10.9867C8.8 10.68 8.72 10.3333 8.72 10ZM11 15.3333C9.81333 15.3067 8.64 15.0267 7.57333 14.4933L8.89333 13.1733C10.64 14.3333 13 13.8533 14.16 12.1067C15 10.8267 15 9.17333 14.16 7.89333L15.8 6.26667C17.3467 7.30667 18.7467 8.56 19.9333 10C18.8133 11.36 15.1733 15.3333 11 15.3333Z" fill="#FF8400"/>
</svg>
